/Users/Bhavya/Documents/STS/SpringFinal/src/main/java/com/bhavya/mts/service/impl/ShowTimeServiceImpl.java
/Users/Bhavya/Documents/STS/SpringFinal/src/main/java/com/bhavya/mts/service/MovieService.java
/Users/Bhavya/Documents/STS/SpringFinal/src/main/java/com/bhavya/mts/entity/ShowTime.java
/Users/Bhavya/Documents/STS/SpringFinal/src/main/java/com/bhavya/mts/repository/impl/ShowTimeRepositoryImpl.java
/Users/Bhavya/Documents/STS/SpringFinal/src/main/java/com/bhavya/mts/entity/impl/ShowTimeImpl.java
/Users/Bhavya/Documents/STS/SpringFinal/src/main/java/com/bhavya/mts/repository/impl/TheaterRepositoryImpl.java
/Users/Bhavya/Documents/STS/SpringFinal/src/main/java/com/bhavya/mts/service/exception/InvalidFieldException.java
/Users/Bhavya/Documents/STS/SpringFinal/src/main/java/com/bhavya/mts/service/ShowTimeService.java
/Users/Bhavya/Documents/STS/SpringFinal/src/main/java/com/bhavya/mts/http/exception/MTSExceptionMapper.java
/Users/Bhavya/Documents/STS/SpringFinal/src/main/java/com/bhavya/mts/service/impl/TheaterServiceImpl.java
/Users/Bhavya/Documents/STS/SpringFinal/src/main/java/com/bhavya/mts/entity/Movie.java
/Users/Bhavya/Documents/STS/SpringFinal/src/main/java/com/bhavya/mts/repository/TheaterRepository.java
/Users/Bhavya/Documents/STS/SpringFinal/src/main/java/com/bhavya/mts/entity/impl/MovieImpl.java
/Users/Bhavya/Documents/STS/SpringFinal/src/main/java/com/bhavya/mts/entity/Theater.java
/Users/Bhavya/Documents/STS/SpringFinal/src/main/java/com/bhavya/mts/repository/impl/MovieRepositoryImpl.java
/Users/Bhavya/Documents/STS/SpringFinal/src/main/java/com/bhavya/mts/service/exception/MTSException.java
/Users/Bhavya/Documents/STS/SpringFinal/src/main/java/com/bhavya/mts/service/exception/ErrorCode.java
/Users/Bhavya/Documents/STS/SpringFinal/src/main/java/com/bhavya/mts/http/entity/HttpTheater.java
/Users/Bhavya/Documents/STS/SpringFinal/src/main/java/com/bhavya/mts/repository/MovieRepository.java
/Users/Bhavya/Documents/STS/SpringFinal/src/main/java/com/bhavya/mts/http/entity/HttpMovie.java
/Users/Bhavya/Documents/STS/SpringFinal/src/main/java/com/bhavya/mts/entity/impl/TheaterImpl.java
/Users/Bhavya/Documents/STS/SpringFinal/src/main/java/com/bhavya/mts/http/exception/HttpError.java
/Users/Bhavya/Documents/STS/SpringFinal/src/main/java/com/bhavya/mts/repository/ShowTimeRepository.java
/Users/Bhavya/Documents/STS/SpringFinal/src/main/java/com/bhavya/mts/http/MovieResource.java
/Users/Bhavya/Documents/STS/SpringFinal/src/main/java/com/bhavya/mts/service/TheaterService.java
/Users/Bhavya/Documents/STS/SpringFinal/src/main/java/com/bhavya/mts/http/TheaterResource.java
/Users/Bhavya/Documents/STS/SpringFinal/src/main/java/com/bhavya/mts/service/impl/MovieServiceImpl.java
