/Users/Bhavya/Documents/STS/SpringFinal/src/test/java/com/bhavya/mts/service/TestMovieService.java
/Users/Bhavya/Documents/STS/SpringFinal/src/test/java/com/bhavya/mts/repository/TestMovieRepository.java
/Users/Bhavya/Documents/STS/SpringFinal/src/test/java/com/bhavya/mts/service/TestTheaterService.java
/Users/Bhavya/Documents/STS/SpringFinal/src/test/java/com/bhavya/mts/repository/TestTheaterRepository.java
